<?xml version="1.0" encoding="UTF-8"?>
<svg width="41px" height="77px" viewBox="0 0 41 77" version="1.1" xmlns="http://www.w3.org/2000/svg" xmlns:xlink="http://www.w3.org/1999/xlink">
    <!-- Generator: Sketch 50.2 (55047) - http://www.bohemiancoding.com/sketch -->
    <title>1 Fundamentals/Illustrations/Molecules/People/ManShowsRight</title>
    <desc>Created with Sketch.</desc>
    <defs></defs>
    <g id="2.-Fundamentals" stroke="none" stroke-width="1" fill="none" fill-rule="evenodd">
        <g id="Illustrations" transform="translate(-343.000000, -1556.000000)">
            <g id="Molecules" transform="translate(100.000000, 1470.000000)">
                <g id="1-Fundamentals/Illustrations/Molecules/People/ManShowsRight" transform="translate(243.000000, 86.000000)">
                    <g id="Fundamentals/Illustrations/Molecules/People/ManShowsRight" transform="translate(0.400000, 0.200000)">
                        <path d="M17.1,72.453 L13.314,72.753 C13.1443303,73.0803113 13.0057237,73.4228102 12.9,73.776 C12.831,74.907 12.633,74.919 14.544,75.009 C14.487,74.766 14.445,74.478 14.565,74.409 C14.685,74.34 14.814,74.709 14.883,75.027 L15.612,75.063 C16.974,75.138 20.649,75.438 21.699,75.105 C22.38,74.889 17.583,72.975 17.1,72.453 Z" id="Shape" fill="#172B4D" fill-rule="nonzero"></path>
                        <path d="M10.911,73.2 L7.116,73.344 C6.93256743,73.6600655 6.77890665,73.992495 6.657,74.337 C6.537,75.465 6.342,75.468 8.247,75.642 C8.199,75.399 8.172,75.108 8.295,75.042 C8.418,74.976 8.529,75.363 8.595,75.672 L9.321,75.741 C10.68,75.876 14.337,76.341 15.399,76.041 C16.065,75.852 11.358,73.728 10.911,73.2 Z" id="Shape" fill="#172B4D" fill-rule="nonzero"></path>
                        <path d="M12.492,12.159 C11.415,12.234 9.063,11.832 8.703,8.295 C8.343,4.758 12.408,4.884 15.183,3.3 C17.958,1.716 15.213,1.335 15.828,2.418 C16.443,3.501 17.721,1.2 17.487,3.105 C17.301,4.605 18.687,5.541 17.649,6.063 C17.184,6.294 17.349,6.27 16.926,6.852 C16.053,8.1 16.905,9.6 16.905,9.6 C17.061,10.467 15.009,11.325 14.628,10.758 C14.028,9.858 14.229,8.781 13.542,8.901 C12.966,9.003 11.97,10.206 12.942,10.797 C15.078,12.09 12.492,12.159 12.492,12.159 Z" id="Shape" fill="#172B4D" fill-rule="nonzero"></path>
                        <path d="M16.2,3.561 C16.1512311,4.08375673 15.983999,4.5885309 15.711,5.037 C15.486,5.337 13.911,6.339 12.795,7.104 C12.9377561,7.59623672 13.225195,8.03418919 13.62,8.361 C13.68,8.682 12.873,8.7 12.69,8.517 C12.5058575,8.25010798 12.2869256,8.00898022 12.039,7.8 C11.8983803,7.75977468 11.7532157,7.73759675 11.607,7.734 L11.007,7.854 C10.107,8.181 10.044,8.841 10.326,9.522 C10.608,10.203 11.574,10.584 12.441,10.314 L12.6,10.767 L13.29,12.429 C14.026,13.229 15.088,13.31 16.476,12.672 C18.558,11.727 18.759,10.299 18.618,9.435 C18.534,8.859 17.728,6.901 16.2,3.561 Z" id="Shape" fill="#FFFFFF"></path>
                        <path d="M13.092,34.545 C13.092,34.545 14.025,69.96 14.454,71.94 L18.273,71.772 C18.615,70.674 19.197,49.593 19.398,45.258 C19.68,39.141 20.067,36.144 19.629,34.548 L13.092,34.545 Z" id="Shape" fill="#226393" fill-rule="nonzero"></path>
                        <path d="M7.833,34.392 C7.833,34.392 8.367,71.307 8.433,73.029 C8.466,73.749 13.233,73.128 13.083,72.411 C12.867,71.286 14.658,39.477 15.12,38.634 C15.582,37.791 19.5,36.9 19.371,34.401 L7.833,34.392 Z" id="Shape" fill="#2771B0" fill-rule="nonzero"></path>
                        <path d="M9.453,38.892 L5.7,38.199 C5.931,37.158 4.554,34.776 3.45,32.862 C2.88,31.875 2.292,30.855 1.791,29.844 C-0.051,26.133 1.5,23.841 2.7,23.07 L4.932,25.905 C4.96787476,25.8864272 5.00115861,25.8632294 5.031,25.836 C4.785,26.058 4.518,26.886 5.289,28.446 C5.739,29.346 6.3,30.33 6.843,31.272 C8.439,34.038 9.948,36.651 9.453,38.892 Z" id="Shape" fill="#FFFFFF" fill-rule="nonzero"></path>
                        <path d="M5.811,17.931 C4.2,19.992 0.015,22.884 0.315,23.976 C0.615,25.068 2.967,26.88 3.999,27.3 C5.031,27.72 9.099,23.883 10.023,22.443 C10.947,21.003 10.644,18.273 8.502,16.578 C7.716,15.951 6.3,17.322 5.811,17.931 Z" id="Shape" fill="#D5DDE8" fill-rule="nonzero"></path>
                        <path d="M5.316,38.7 C5.316,38.7 4.614,40.314 4.305,40.578 C3.996,40.842 3.123,39.81 2.736,39.9 C2.349,39.99 2.364,39.933 2.691,40.329 C3.018,40.725 3.291,41.781 3.906,42.108 C4.20663991,42.0848046 4.50565859,42.1699344 4.749,42.348 C5.049,42.63 5.886,42.948 6.222,42.813 C6.558,42.678 7.722,41.832 8.268,42.279 C8.814,42.726 10.461,38.079 9.015,37.992 C8.0204865,37.9145914 7.0346966,37.7499585 6.069,37.5 L5.316,38.7 Z" id="Shape" fill="#FFFFFF" fill-rule="nonzero"></path>
                        <path d="M16.953,17.778 C16.953,17.778 17.853,23.598 18.51,22.932 C19.644,21.798 24.78,22.116 25.71,21.768 C26.64,21.42 26.61,17.73 24.927,17.31 C21.036,16.341 16.953,17.778 16.953,17.778 Z" id="Shape" fill="#D5DDE8" fill-rule="nonzero"></path>
                        <path d="M16.953,17.778 C16.953,17.778 21.699,18.3 23.682,22.137 L20.382,22.305" id="Shape" fill="#000000" fill-rule="nonzero" opacity="0.05"></path>
                        <path d="M8.502,16.572 C8.502,16.572 10.959,22.326 7.644,25.311 C6.444,26.385 8.202,34.35 8.244,34.974 C8.286,35.598 18.87,35.274 19.743,35.205 C20.616,35.136 20.31,18.342 19.92,17.598 C19.53,16.854 17.382,15.498 17.382,15.498 L14.646,17.31 L10.2,14.358 L8.502,16.572 Z" id="Shape" fill="#2C4356" fill-rule="nonzero"></path>
                        <path d="M11.649,14.835 C12.231,15.348 12.957,16.302 14.166,16.707 C15.375,17.112 16.788,15.786 17.079,15.138 C17.223,14.82 17.91,15.594 17.868,15.939 C17.736,17.013 15.24,18.681 14.055,18.531 C12.531,18.339 9.348,14.931 9.348,14.931 C9.268544,14.868732 9.21833439,14.7764116 9.20924618,14.6758732 C9.20015797,14.5753349 9.23299824,14.4755071 9.3,14.4 L9.699,14.19 C10.0181813,14.0092258 10.4088187,14.0092258 10.728,14.19 C10.728,14.19 11.439,14.652 11.649,14.835 Z" id="Shape" fill="#CDDCEA" fill-rule="nonzero"></path>
                        <path d="M10.557,11.016 C9.48,11.091 8.799,10.374 8.439,6.837 C8.079,3.3 10.473,3.741 13.239,2.148 C16.005,0.555 16.476,-0.3 17.1,0.786 C17.724,1.872 17.724,2.886 17.337,3.645 C16.926,4.458 16.842,4.272 16.317,4.941 C15.999,5.346 15.417,5.127 15,5.709 C14.127,6.954 14.979,8.442 14.979,8.442 C15.135,9.309 13.779,9.96 13.479,9.342 C13.029,8.403 12.354,7.602 11.601,7.74 C11.025,7.845 10.029,9.045 11.001,9.636 C11.403,9.882 12.135,9.954 12.381,10.209 C12.939,10.782 10.557,11.016 10.557,11.016 Z" id="Shape" fill="#172B4D" fill-rule="nonzero"></path>
                        <path d="M32.922,11.502 C32.922,11.502 35.085,13.149 36.423,11.802 C37.596,10.629 37.623,10.407 37.986,10.218 C38.349,10.029 38.787,9.18 38.286,9.216 C37.785,9.252 37.278,9.681 37.386,9.441 C37.86,8.406 39.852,6.699 39.816,5.523 C39.78,4.347 38.661,6.36 38.1,6.39 C36.318,6.492 36.183,6.504 34.908,7.863 C33.633,9.222 33.33,10.47 32.85,10.953" id="Shape" fill="#FFFFFF" fill-rule="nonzero"></path>
                        <path d="M26.31,21.3 C24.453,21.687 23.817,21.171 23.91,20.742 C24.003,20.313 24.948,19.929 25.062,19.476 C25.233,18.795 25.755,17.886 25.623,17.901 C25.9849167,17.8083833 26.3308032,17.6617355 26.649,17.466 C27.417,17.046 30.072,14.934 31.071,13.467 C32.847,10.86 33.438,10.377 34.086,9.165 L35.7,11.604 C35.229,11.922 34.284,14.076 33.405,15.204 C31.35,17.868 29.898,19.665 28.5,20.43 C27.8166723,20.8259468 27.0787542,21.1190924 26.31,21.3 Z" id="Shape" fill="#FFFFFF" fill-rule="nonzero"></path>
                    </g>
                </g>
            </g>
        </g>
    </g>
</svg>