<?xml version="1.0" encoding="UTF-8"?>
<svg width="24px" height="69px" viewBox="0 0 24 69" version="1.1" xmlns="http://www.w3.org/2000/svg" xmlns:xlink="http://www.w3.org/1999/xlink">
    <!-- Generator: Sketch 50.2 (55047) - http://www.bohemiancoding.com/sketch -->
    <title>1 Fundamentals/Illustrations/Molecules/People/PersonLooks</title>
    <desc>Created with Sketch.</desc>
    <defs></defs>
    <g id="2.-Fundamentals" stroke="none" stroke-width="1" fill="none" fill-rule="evenodd">
        <g id="Illustrations" transform="translate(-448.000000, -1556.000000)">
            <g id="Molecules" transform="translate(100.000000, 1470.000000)">
                <g id="1-Fundamentals/Illustrations/Molecules/People/PersonLooks" transform="translate(348.000000, 86.000000)">
                    <g id="Fundamentals/Illustrations/Molecules/People/PersonLooks" transform="translate(0.900000, 0.500000)">
                        <path d="M18.72,33.237 C18.72,33.237 20.931,34.815 21.519,35.49 C21.819,35.826 21.372,36.324 21.489,36.789 C21.789,37.989 19.452,38.253 19.389,37.806 C19.245,36.606 18.633,36.441 18.633,36.441 C18.633,36.441 17.919,37.455 17.733,36.039 C17.592,34.968 17.451,34.143 17.451,34.143 C17.451,34.143 17.859,32.64 18.72,33.237 Z" id="Shape" fill="#FFFFFF" fill-rule="nonzero"></path>
                        <path d="M0.636,33.528 C0.636,33.528 0.42,36.18 0.549,37.017 C0.612,37.434 1.122,37.446 1.545,37.443 C1.968,37.44 3.567,36.699 3.234,36.471 C2.37,35.871 2.574,34.758 2.574,34.758 C2.574,34.758 4.185,35.058 3.27,34.158 C2.58,33.489 2.07,32.958 2.07,32.958 C2.07,32.958 0.729,32.505 0.636,33.528 Z" id="Shape" fill="#FFFFFF" fill-rule="nonzero"></path>
                        <path d="M6.933,58.104 C6.933,58.104 6.477,66.552 6.897,67.023 C7.317,67.494 8.049,67.554 8.328,67.386 C8.73,67.137 11.439,65.886 12.195,64.956 C12.648,64.398 11.412,64.017 10.947,63.939 C10.392,63.849 9.786,64.269 9.372,63.57 C8.958,62.871 9.6,58.2 9.6,58.2 L6.933,58.104 Z" id="Shape" fill="#344563" fill-rule="nonzero"></path>
                        <path d="M16.722,58.701 C16.722,58.701 16.158,67.329 16.782,67.818 C17.406,68.307 18.144,68.097 18.507,68.079 C19.494,68.025 22.446,67.902 22.224,67.458 C21.837,66.684 21.951,66.258 19.746,65.988 C18.684,65.853 20.646,58.866 20.646,58.866 L16.722,58.701 Z" id="Shape" fill="#344563" fill-rule="nonzero"></path>
                        <path d="M4.848,29.967 C4.848,29.967 3.033,33.066 4.905,38.136 C4.905,38.136 6.327,48.936 6.285,50.436 C6.243,51.936 6.357,53.01 6.033,54.207 C5.709,55.404 5.778,58.128 6.333,58.605 C6.888,59.082 9.633,59.046 9.633,59.046 C9.633,59.046 10.608,55.146 10.254,52.419 C9.98825753,50.5093164 9.84995168,48.584059 9.84,46.656 C9.765,44.232 9.486,38.778 9.486,38.778 C9.486,38.778 16.407,53.733 16.368,55.095 C16.329,56.457 15.45,57.024 16.122,58.713 C16.794,60.402 16.773,61.161 17.922,60.753 C19.071,60.345 22.104,60.69 21.294,57.339 C20.805,55.2 20.673,53.46 19.671,50.7 C18.957,48.732 15.429,32.679 14.889,31.446 C14.349,30.213 4.848,29.967 4.848,29.967 Z" id="Shape" fill="#99C1E2" fill-rule="nonzero"></path>
                        <path d="M9.429,10.704 C9.813,10.878 11.265,10.587 11.703,10.638 C14.031,10.899 15.861,8.397 16.086,5.955 C16.2563902,4.22232881 15.4252966,2.54384569 13.944,1.629 C12.636,0.725 11.343,0.282 10.065,0.3 C8.064,0.327 8.484,1.227 7.704,1.563 C7.491,1.656 6.993,1.953 6.996,2.364 C6.999,2.775 6.303,2.964 6.21,3.234 C5.925,4.053 5.994,4.263 5.736,4.902 C5.289,6.018 5.898,7.731 7.029,9.192 C7.785,10.164 8.187,10.881 8.637,10.668 L9.429,10.704 Z" id="Shape" fill="#424242"></path>
                        <path d="M15.156,5.07 C14.9553177,5.42395276 14.6811725,5.73083182 14.352,5.97 C14.109,6.117 13.992,6.432 13.038,6.6 C12.906,7.272 12.816,7.923 12.816,7.923 C12.516,8.067 12.36,8.109 12.309,7.923 L12.309,6.69 L12.078,6.666 L11.7,6.546 C11.034,6.474 10.77,6.93 10.713,7.518 C10.685808,8.12787633 11.1379248,8.6535935 11.745,8.718 L11.7,9.198 L11.562,10.635 C11.52,11.361 11.19,11.745 12.261,11.766 C13.866,11.796 14.478,10.83 14.685,10.158 C14.809,9.702 14.966,8.006 15.156,5.07 Z" id="Shape" fill="#FFFFFF"></path>
                        <path d="M14.973,23.637 C15.006,24.279 15.036,24.978 15.054,25.737 C15.135,28.854 15.972,34.032 17.19,35.337 L19.92,33.537 C18.468,30.75 18.72,26.442 18.699,25.29 C18.399,14.631 16.446,13.392 15.135,13.104 L15.114,13.143 C14.019,12.894 12.204,13.014 10.314,12.933 C8.814,12.87 7.539,12.741 6.618,12.801 C6.50829299,12.8032392 6.39894234,12.8142746 6.291,12.834 C5.90796511,12.848003 5.5453989,13.0104584 5.28,13.287 C5.235,13.32 5.19,13.35 5.142,13.389 C2.877,15.27 0.954,22.761 0,33.429 L3.438,33.804 C4.179,25.5 5.358,20.742 6.255,18.3 C6.489,19.2 7.284,22.5 6.738,24.3 C6.102,26.4 3.942,30.195 3.942,30.195 C3.942,30.195 15.3,33.387 15.579,31.245 C15.738,30.021 14.595,28.041 14.514,26.892 C14.412,25.452 14.214,24.612 14.667,24.024 C14.757,23.907 14.862,23.781 14.973,23.637 Z" id="Shape" fill="#D5DDE8" fill-rule="nonzero"></path>
                        <path d="M12.837,13.608 C12.837,13.953 12.021,14.538 10.815,14.487 C9.609,14.436 8.46,13.77 8.469,13.425 C8.478,13.08 9.693,13.425 10.899,13.47 C12.105,13.515 12.846,13.263 12.837,13.608 Z" id="Shape" fill="#586775" fill-rule="nonzero" opacity="0.41"></path>
                    </g>
                </g>
            </g>
        </g>
    </g>
</svg>