<?xml version="1.0" encoding="UTF-8"?>
<svg width="34px" height="75px" viewBox="0 0 34 75" version="1.1" xmlns="http://www.w3.org/2000/svg" xmlns:xlink="http://www.w3.org/1999/xlink">
    <!-- Generator: Sketch 50.2 (55047) - http://www.bohemiancoding.com/sketch -->
    <title>1 Fundamentals/Illustrations/Molecules/People/WomenShows</title>
    <desc>Created with Sketch.</desc>
    <defs></defs>
    <g id="2.-Fundamentals" stroke="none" stroke-width="1" fill="none" fill-rule="evenodd">
        <g id="Illustrations" transform="translate(-265.000000, -1556.000000)">
            <g id="Molecules" transform="translate(100.000000, 1470.000000)">
                <g id="1-Fundamentals/Illustrations/Molecules/People/WomenShows" transform="translate(165.000000, 86.000000)">
                    <g id="Fundamentals/Illustrations/Molecules/People/WomenShows" transform="translate(0.400000, 0.500000)">
                        <path d="M29.757,30.762 C29.757,30.762 33.24,35.316 31.257,54.885 C31.257,54.885 33.864,62.415 31.968,68.889 L29.013,69.282 L24.6,43.092 C24.6,43.092 23.265,50.055 23.19,51.921 C23.001,56.721 22.941,63.6 21.339,66.378 L17.739,65.682 C17.739,65.682 16.953,53.016 17.655,47.082 C18.198,42.48 17.193,33.882 18.579,32.439 C19.965,30.996 29.757,30.762 29.757,30.762 Z" id="Shape" fill="#2771B0" fill-rule="nonzero"></path>
                        <path d="M29.94,31.167 C29.94,31.167 33.84,35.367 31.35,54.867 C31.35,54.867 33.909,62.841 31.839,69.267 L29.1,69.3 L24.273,43.2 C24.273,43.2 28.215,41.598 29.703,38.604 C30.573,36.846 29.94,31.167 29.94,31.167 Z" id="Shape" fill="#226393" fill-rule="nonzero"></path>
                        <path d="M3.849,12.384 C3.849,12.384 1.263,10.743 0.519,10.002 C0.15,9.633 0.324,9.048 0.483,8.565 C0.642,8.082 1.929,6.798 2.022,7.335 C2.16475259,8.16267466 2.66975356,8.88331875 3.399,9.3 C3.399,9.3 3.699,7.257 4.215,8.928 C4.593,10.191 4.92,11.16 4.92,11.16 C4.92,11.16 4.851,13.005 3.849,12.384 Z" id="Shape" fill="#FFFFFF" fill-rule="nonzero"></path>
                        <path d="M29.577,19.965 C30,19.2 30.435,16.752 29.91,15.483 C29.01,13.329 26.31,11.739 21.642,10.626 L19.842,10.2 C19.584,10.83 20.226,11.79 21.393,12.801 C20.592,13.554 19.569,14.352 18.651,14.58 L18.411,14.64 C17.8825605,14.803888 17.3445458,14.9351355 16.8,15.033 C12.438,15.648 11.007,14.958 4.74,9.654 L2.298,12.417 C8.115,17.34 9.387,18.417 13.617,19.242 C14.037,19.323 14.799,19.167 14.997,19.176 C15.7428184,19.2205702 16.3532755,19.7858083 16.455,20.526 C16.5201269,20.811596 16.482968,21.1109903 16.35,21.372 C14.673,25.539 17.25,25.953 17.25,25.953 C19.137,27.654 19.023,31.989 18.567,32.433 C23.739,33.516 30.426,31.563 29.745,30.759 C29.262,30.177 29.442,23.529 29.577,19.965 Z M22.941,15.075 L22.941,15.093 L22.941,15.075 Z" id="Shape" fill="#2C4356" fill-rule="nonzero"></path>
                        <path d="M23.97,10.953 C23.4238452,11.0060232 22.8728453,10.977715 22.335,10.869 C20.9342023,10.6031645 19.6983955,9.78697241 18.9039951,8.60298308 C18.1095946,7.41899375 17.8228867,5.96600153 18.108,4.569 C18.563644,2.47615879 20.2100599,0.848559047 22.308,0.417 C24.236,-0.123 25.979,-0.138 27.537,0.372 C29.979,1.17 31.341,4.545 31.5,5.22 C31.734,6.309 30.468,7.899 30.27,8.685 C30.072,9.471 29.97,10.485 28.041,11.739 C26.747,12.569 25.866,12.776 25.398,12.36 L23.97,10.953 Z" id="Shape" fill="#1A5784"></path>
                        <path d="M19.74,4.011 C19.8695503,4.54390169 20.1131508,5.04236145 20.454,5.472 C20.721,5.772 22.395,6.528 23.61,7.131 C23.517,8.031 23.373,8.886 23.373,8.886 C23.715,9.186 23.91,9.309 24.057,9.087 L24.54,7.53 L24.858,7.593 L25.458,7.617 C26.379,7.803 26.55,8.484 26.388,9.249 C26.226,10.014 25.788,10.341 25.344,10.269 L24,12.81 C23.418,13.768 22.405,14.038 20.961,13.62 C18.795,12.993 18.366,11.52 18.36,10.596 C18.348,9.976 18.808,7.781 19.74,4.011 Z" id="Shape" fill="#FFFFFF"></path>
                        <path d="M27.582,12 C27.582,12 25.236,13.095 24.777,14.904 C24.777,14.904 22.47,11.928 25.329,10.26" id="Shape" fill="#1A5784" fill-rule="nonzero"></path>
                        <path d="M20.253,3.861 C20.253,3.861 20.163,7.707 21.81,8.889 C23.106,9.816 24.57,8.94 24.57,8.94 C25.122,8.067 24.993,5.973 24.993,5.973" id="Shape" fill="#1A5784" fill-rule="nonzero"></path>
                        <path d="M25.917,72.066 C25.917,72.066 29.346,71.628 29.037,69.423 C28.641,66.618 28.071,66.24 27.981,65.013 L32.85,64.833 C32.85,64.833 32.139,72.012 31.845,72.873 L30.945,72.954 L30.924,72.687 C30.9002831,72.5094867 30.7425794,72.3810442 30.5639398,72.3937475 C30.3853002,72.4064507 30.2473589,72.5559168 30.249,72.735 L30.27,73.014 C28.374,73.185 25.41,73.437 25.38,73.344 C25.35,73.251 24.6,72 25.917,72.066 Z" id="Shape" fill="#172B4D" fill-rule="nonzero"></path>
                        <path d="M14.358,72.252 C14.358,72.252 17.907,72.225 18.156,69.918 C18.456,67.107 17.349,65.763 17.415,64.482 L22.215,64.521 C22.215,64.521 21.243,72.996 20.802,73.848 L19.902,73.824 L19.929,73.677 C19.9578027,73.4956204 19.834322,73.3251633 19.653,73.296 C19.4702236,73.2650611 19.2964909,73.3866739 19.263,73.569 L19.2,73.8 C17.1,73.734 13.626,73.614 13.605,73.5 C13.584,73.386 12.915,72.03 14.358,72.252 Z" id="Shape" fill="#172B4D" fill-rule="nonzero"></path>
                    </g>
                </g>
            </g>
        </g>
    </g>
</svg>