<?xml version="1.0" encoding="UTF-8"?>
<svg width="91px" height="43px" viewBox="0 0 91 43" version="1.1" xmlns="http://www.w3.org/2000/svg" xmlns:xlink="http://www.w3.org/1999/xlink">
    <!-- Generator: Sketch 50.2 (55047) - http://www.bohemiancoding.com/sketch -->
    <title>1 Fundamentals/Illustrations/Molecules/Clouds</title>
    <desc>Created with Sketch.</desc>
    <defs></defs>
    <g id="2.-Fundamentals" stroke="none" stroke-width="1" fill="none" fill-rule="evenodd">
        <g id="Illustrations" transform="translate(-887.000000, -1732.000000)" fill="#FFFFFF">
            <g id="Molecules" transform="translate(100.000000, 1470.000000)">
                <g id="1-Fundamentals/Illustrations/Molecules/Clouds" transform="translate(787.000000, 262.000000)">
                    <g id="Fundamentals/Illustrations/Molecules/Clouds">
                        <path d="M47.29,0 L10.375,0 C9.27263826,0.0542272548 8.40670423,0.963805299 8.40670423,2.0675 C8.40670423,3.1711947 9.27263826,4.08077275 10.375,4.135 L18.245,4.135 C19.3473617,4.18922725 20.2132958,5.0988053 20.2132958,6.2025 C20.2132958,7.3061947 19.3473617,8.21577275 18.245,8.27 L2.57,8.27 C1.8070955,8.23247129 1.08552029,8.61812115 0.692820565,9.27326892 C0.300120841,9.9284167 0.300120841,10.7465833 0.692820565,11.4017311 C1.08552029,12.0568789 1.8070955,12.4425287 2.57,12.405 L63.07,12.405 C64.210468,12.4132842 65.1417157,11.495468 65.1499999,10.355 C65.1582842,9.21453201 64.240468,8.2832843 63.1,8.275 L34.6,8.275 C33.8370955,8.31252871 33.1155203,7.92687885 32.7228206,7.27173108 C32.3301208,6.6165833 32.3301208,5.7984167 32.7228206,5.14326892 C33.1155203,4.48812115 33.8370955,4.10247129 34.6,4.14 L47.29,4.14 C48.0529045,4.17752871 48.7744797,3.79187885 49.1671794,3.13673108 C49.5598792,2.4815833 49.5598792,1.6634167 49.1671794,1.00826892 C48.7744797,0.353121146 48.0529045,-0.0325287126 47.29,0.005 L47.29,0 Z" id="Shape" fill-rule="nonzero" opacity="0.78"></path>
                        <path d="M88.205,21.355 L46.83,21.355 C45.7276383,21.4092273 44.8617042,22.3188053 44.8617042,23.4225 C44.8617042,24.5261947 45.7276383,25.4357727 46.83,25.49 L59.155,25.49 C59.9179045,25.4524713 60.6394797,25.8381211 61.0321794,26.4932689 C61.4248792,27.1484167 61.4248792,27.9665833 61.0321794,28.6217311 C60.6394797,29.2768789 59.9179045,29.6625287 59.155,29.625 L15.86,29.625 C15.0970955,29.5874713 14.3755203,29.9731211 13.9828206,30.6282689 C13.5901208,31.2834167 13.5901208,32.1015833 13.9828206,32.7567311 C14.3755203,33.4118789 15.0970955,33.7975287 15.86,33.76 L28.185,33.76 C28.9479045,33.7224713 29.6694797,34.1081211 30.0621794,34.7632689 C30.4548792,35.4184167 30.4548792,36.2365833 30.0621794,36.8917311 C29.6694797,37.5468789 28.9479045,37.9325287 28.185,37.895 L12.5,37.895 C11.3976383,37.9492273 10.5317042,38.8588053 10.5317042,39.9625 C10.5317042,41.0661947 11.3976383,41.9757727 12.5,42.03 L53.875,42.03 C55.015468,42.0382842 55.9467156,41.120468 55.9549999,39.98 C55.9632842,38.839532 55.045468,37.9082843 53.905,37.9 L49.17,37.9 C48.4070955,37.9375287 47.6855203,37.5518789 47.2928206,36.8967311 C46.9001208,36.2415833 46.9001208,35.4234167 47.2928206,34.7682689 C47.6855203,34.1131211 48.4070955,33.7274713 49.17,33.765 L84.855,33.765 C85.995468,33.7732842 86.9267157,32.855468 86.935,31.715 C86.9432842,30.574532 86.025468,29.6432843 84.885,29.635 L80.135,29.635 C79.3720955,29.6725287 78.6505203,29.2868789 78.2578206,28.6317311 C77.8651208,27.9765833 77.8651208,27.1584167 78.2578206,26.5032689 C78.6505203,25.8481211 79.3720955,25.4624713 80.135,25.5 L88.2,25.5 C89.3023617,25.4457727 90.1682958,24.5361947 90.1682958,23.4325 C90.1682958,22.3288053 89.3023617,21.4192273 88.2,21.365 L88.205,21.355 Z" id="Shape" fill-rule="nonzero" opacity="0.73"></path>
                    </g>
                </g>
            </g>
        </g>
    </g>
</svg>