<?xml version="1.0" encoding="UTF-8"?>
<svg width="34px" height="62px" viewBox="0 0 34 62" version="1.1" xmlns="http://www.w3.org/2000/svg" xmlns:xlink="http://www.w3.org/1999/xlink">
    <!-- Generator: Sketch 50.2 (55047) - http://www.bohemiancoding.com/sketch -->
    <title>1 Fundamentals/Illustrations/Molecules/Flipchart</title>
    <desc>Created with Sketch.</desc>
    <defs></defs>
    <g id="2.-Fundamentals" stroke="none" stroke-width="1" fill="none" fill-rule="evenodd">
        <g id="Illustrations" transform="translate(-630.000000, -1841.000000)">
            <g id="Molecules" transform="translate(100.000000, 1470.000000)">
                <g id="1-Fundamentals/Illustrations/Molecules/Flipchart" transform="translate(530.000000, 371.000000)">
                    <g id="Fundamentals/Illustrations/Molecules/Flipchart">
                        <path d="M3.13808126,10.850636 C3.13808126,10.850636 1.12751108,10.695248 1.59178035,15.0195846 C2.05604962,19.3439212 3.0622822,20.8466376 3.0622822,24.5588968 C3.0622822,28.271156 25.2600382,6.06392514 25.2600382,6.06392514 L23.8767052,1.10477136 L3.13808126,10.850636 Z" id="Shape" fill="#D8E4EE" fill-rule="nonzero"></path>
                        <polyline id="Shape" fill="#78A6CA" fill-rule="nonzero" opacity="0.4" points="3.44696245 49.7810355 10.3048828 52.979756 15.468694 61.9013058 18.2524147 60.3929044 12.6527588 52.7466738 12.6527588 52.7466738 31.2462693 55.2878375 33.5676156 53.8969246 14.1213657 51.2250076 5.56175634 48.7501682 5.56175634 48.7501682"></polyline>
                        <path d="M1.4174425,12.9218455 C1.71684881,13.285681 3.29346934,11.5195628 3.76910847,12.1638548 L24.8867278,2.1792231 C24.8867278,2.1792231 24.0226184,-0.545753263 21.7012721,0.378995321 C19.4917294,1.26584437 1.31321879,8.08965513 1.33974846,11.0363438 C1.34732837,11.8985581 1.31511376,12.796777 1.4174425,12.9218455 Z" id="Shape" fill="#F9FBFC" fill-rule="nonzero"></path>
                        <path d="M1.89497661,16.522301 C1.89497661,16.522301 0.479429081,9.75912952 2.46346959,10.5057503 C3.78995321,10.9908643 3.91123172,13.0753386 3.91123172,13.0753386 L1.89497661,16.522301 Z" id="Shape" fill="#D8E4EE" fill-rule="nonzero"></path>
                        <path d="M5.76830879,11.3698596 C5.76830879,11.3698596 3.73310391,11.9610923 3.70278429,12.7475076 C3.52844644,17.5057939 2.75529599,34.3995103 0.494588894,36.2565874 C-2.13563864,38.4225457 13.0241742,31.9246709 13.0241742,31.9246709 L23.8767052,3.32189399 L5.76830879,11.3698596 Z" id="Shape" fill="#D8E4EE" fill-rule="nonzero"></path>
                        <polygon id="Shape" fill="#95B8D5" fill-rule="nonzero" points="13.7480553 41.6307411 15.468694 61.9013058 18.2524147 60.3929044 16.764858 46.2715388 26.2795356 41.6307411 31.2462693 55.2878375 33.5676156 53.8969246 26.974992 35.8283227"></polygon>
                        <polygon id="Shape" fill="#95B8D5" fill-rule="nonzero" points="8.1730341 22.4630527 3.44696245 49.7810355 5.56175634 48.7501682 12.5030556 19.9882132"></polygon>
                        <polygon id="Shape" fill="#F9FBFC" fill-rule="nonzero" points="30.8293744 35.0343275 9.48056796 46.173 3.76910847 12.1581699 24.8867278 2.17732812"></polygon>
                        <polygon id="Shape" fill="#D8E4EE" fill-rule="nonzero" points="10.4735357 43.1012429 10.448901 42.9420649 5.65271522 13.2402015 5.88200739 13.204197 10.6516635 42.7449873 28.4549687 33.3838029 28.5629824 33.5903553"></polygon>
                        <ellipse id="Oval" fill="#95B8D5" fill-rule="nonzero" cx="11.3869144" cy="12.2567087" rx="1" ry="1.23173479"></ellipse>
                        <path d="M13.6438316,13.9034434 C13.5795565,13.7072935 13.4984004,13.5170839 13.4012746,13.3349504 C13.1435577,12.8991058 12.3571425,12.9407952 11.3717546,13.2799961 C10.3863668,13.6191969 9.82924366,14.257804 9.88798793,14.7618678 C9.92399249,15.068854 10.0016865,15.4819589 10.0016865,15.4819589" id="Shape" fill="#95B8D5" fill-rule="nonzero"></path>
                        <ellipse id="Oval" fill="#95B8D5" fill-rule="nonzero" cx="13.2439915" cy="19.3723458" rx="1" ry="1.23173479"></ellipse>
                        <path d="M15.4933287,21.0190805 C15.4290537,20.8229306 15.3478976,20.6327211 15.2507717,20.4505875 C14.9930549,20.0147429 14.2066396,20.0564324 13.2212518,20.3956332 C12.2358639,20.734834 11.6787408,21.3734411 11.7374851,21.8775049 C11.7734897,22.1844911 11.8511837,22.597596 11.8511837,22.597596" id="Shape" fill="#95B8D5" fill-rule="nonzero"></path>
                        <ellipse id="Oval" fill="#95B8D5" fill-rule="nonzero" cx="14.6557491" cy="26.7494898" rx="1" ry="1.23173479"></ellipse>
                        <path d="M16.9050863,28.3962244 C16.8408112,28.2000746 16.7596552,28.009865 16.6625293,27.8277315 C16.4048125,27.3918868 15.6183972,27.4335763 14.6330094,27.7727771 C13.6476215,28.111978 13.0904984,28.7505851 13.1492427,29.2546489 C13.1852472,29.5616351 13.2629413,29.97474 13.2629413,29.97474" id="Shape" fill="#95B8D5" fill-rule="nonzero"></path>
                    </g>
                </g>
            </g>
        </g>
    </g>
</svg>