<?xml version="1.0" encoding="UTF-8"?>
<svg width="211px" height="156px" viewBox="0 0 211 156" version="1.1" xmlns="http://www.w3.org/2000/svg" xmlns:xlink="http://www.w3.org/1999/xlink">
    <!-- Generator: Sketch 50.2 (55047) - http://www.bohemiancoding.com/sketch -->
    <title>1 Fundamentals/Illustrations/Templates/RoomSceneB</title>
    <desc>Created with Sketch.</desc>
    <defs></defs>
    <g id="2.-Fundamentals" stroke="none" stroke-width="1" fill="none" fill-rule="evenodd">
        <g id="Illustrations" transform="translate(-100.000000, -2933.000000)">
            <g id="Templates" transform="translate(100.000000, 2800.000000)">
                <g id="1-Fundamentals/Illustrations/Templates/RoomScene" transform="translate(0.000000, 133.000000)">
                    <g id="Fundamentals/Illustrations/Templates/RoomScene">
                        <polygon id="Shape" fill="#B7CEE1" fill-rule="nonzero" points="209.991 104.1255 115.407 155.457 1.9275 119.133 96.705 69.417"></polygon>
                        <path d="M69.15,97.458 L70.716,116.127 C70.7318053,116.316737 70.8556634,116.480323 71.034,116.547 C71.1877989,116.604682 71.360239,116.581805 71.4936784,116.486018 C71.6271178,116.390231 71.7039529,116.234169 71.6985,116.07 L71.109,97.212" id="Shape" fill="#85AECF" fill-rule="nonzero"></path>
                        <path d="M102.951,108.417 L104.517,127.086 C104.532805,127.275737 104.656663,127.439323 104.835,127.506 C104.988799,127.563682 105.161239,127.540805 105.294678,127.445018 C105.428118,127.349231 105.504953,127.193169 105.4995,127.029 L104.91,108.1725" id="Shape" fill="#78A6CA" fill-rule="nonzero"></path>
                        <path d="M134.265,90.57 L135.831,109.239 C135.846805,109.428737 135.970663,109.592323 136.149,109.659 C136.302799,109.716682 136.475239,109.693805 136.608678,109.598018 C136.742118,109.502231 136.818953,109.346169 136.8135,109.182 L136.224,90.324" id="Shape" fill="#85AECF" fill-rule="nonzero"></path>
                        <polygon id="Shape" fill="#E0EAF2" fill-rule="nonzero" points="96.705 69.417 1.9275 119.133 0.213 50.559 96.705 0"></polygon>
                        <polygon id="Shape" fill="#CDDCEA" fill-rule="nonzero" points="209.991 104.1255 96.705 69.417 96.705 0 209.991 34.7085"></polygon>
                        <polygon id="Shape" fill="#9DBDD8" fill-rule="nonzero" points="184.32 62.988 184.3185 96.2625 171.366 92.2905 171.279 58.947"></polygon>
                        <polygon id="Shape" fill="#F3F7F9" fill-rule="nonzero" points="62.4315 39.543 62.5125 69.2895 79.0245 60.0615 78.9435 30.939"></polygon>
                        <rect id="Rectangle-path" fill="#E0EAF2" fill-rule="nonzero" x="70.0695" y="32.4675" width="1.101" height="37.5135"></rect>
                        <polygon id="Shape" fill="#E0EAF2" fill-rule="nonzero" points="57.81 53.5875 57.318 52.602 84.5955 38.913 85.0875 39.897"></polygon>
                        <path d="M62.442,45.0345 C62.442,45.0345 62.1795,39.7005 66.192,37.578 C70.2045,35.4555 63.7095,32.001 63.7095,32.001 L57.3405,44.0325 L62.442,45.0345 Z" id="Shape" fill="#E0EAF2" fill-rule="nonzero"></path>
                        <path d="M74.8155,33.096 C76.0155,32.388 78.8355,32.646 78.954,36.1815 L83.1705,27.8715 L73.734,25.866 C73.734,25.866 73.101,34.1025 74.8155,33.096 Z" id="Shape" fill="#E0EAF2" fill-rule="nonzero"></path>
                        <polygon id="Shape" fill="#F3F7F9" fill-rule="nonzero" points="24.138 60.138 24.219 89.8845 40.731 80.6565 40.65 51.534"></polygon>
                        <rect id="Rectangle-path" fill="#E0EAF2" fill-rule="nonzero" x="31.7745" y="53.0625" width="1.101" height="37.5135"></rect>
                        <polygon id="Shape" fill="#E0EAF2" fill-rule="nonzero" points="19.515 74.1825 19.023 73.197 46.3005 59.508 46.7925 60.4935"></polygon>
                        <path d="M24.15,65.6295 C24.15,65.6295 23.8875,60.2955 27.9,58.173 C31.9125,56.0505 25.4175,52.596 25.4175,52.596 L19.05,64.6275 L24.15,65.6295 Z" id="Shape" fill="#E0EAF2" fill-rule="nonzero"></path>
                        <path d="M36.522,53.691 C37.722,52.983 40.542,53.241 40.6605,56.7765 L44.877,48.4665 L35.4405,46.461 C35.4405,46.461 34.8,54.6975 36.522,53.691 Z" id="Shape" fill="#E0EAF2" fill-rule="nonzero"></path>
                        <polygon id="Shape" fill="#6499C4" fill-rule="nonzero" points="106.5015 81.54 64.3785 99.417 64.3065 100.176 104.1045 111.441 143.166 90.3795 143.238 89.376"></polygon>
                        <polygon id="Shape" fill="#CDDCEA" fill-rule="nonzero" points="106.746 77.376 64.3785 99.417 104.052 110.193 143.238 89.376"></polygon>
                        <polygon id="Shape" fill="#B7CEE1" fill-rule="nonzero" points="62.2965 70.3965 62.256 71.253 64.542 72.4365 82.0935 62.6415 82.0725 61.947 79.1955 60.906"></polygon>
                        <polygon id="Shape" fill="#E5EEF4" fill-rule="nonzero" points="62.2965 70.3965 64.5555 71.6445 82.0725 61.947 79.1955 60.906"></polygon>
                        <polygon id="Shape" fill="#B7CEE1" fill-rule="nonzero" points="24.459 91.0905 24.4185 91.9485 26.703 93.132 44.2545 83.3355 44.235 82.641 41.3565 81.6"></polygon>
                        <polygon id="Shape" fill="#E5EEF4" fill-rule="nonzero" points="24.459 91.0905 26.718 92.34 44.235 82.641 41.3565 81.6"></polygon>
                        <polygon id="Shape" fill="#78A6CA" fill-rule="nonzero" points="171.279 58.947 173.472 59.706 173.7285 90.234 171.366 92.2905"></polygon>
                        <polyline id="Shape" fill="#D5E2ED" fill-rule="nonzero" points="96.705 0 83.481 76.2735 96.705 69.417 96.705 0"></polyline>
                        <path d="M76.581,32.805 C76.581,32.805 77.2755,33.6825 77.316,35.7435 C77.358,37.8555 77.391,42.519 77.391,42.519 L78.963,41.733 L78.912,35.85 C78.912,35.85 78.948,33.498 76.581,32.805 Z" id="Shape" fill="#CDDCEA" fill-rule="nonzero"></path>
                        <polygon id="Shape" fill="#CDDCEA" fill-rule="nonzero" points="77.412 43.8195 77.5845 60.621 79.014 60.8145 78.963 42.9675"></polygon>
                        <polygon id="Shape" fill="#CDDCEA" fill-rule="nonzero" points="39.21 64.3905 39.276 81.6615 40.731 80.6565 40.587 63.564"></polygon>
                        <path d="M38.3775,53.376 C38.3775,53.376 39.072,54.2535 39.1125,56.3145 C39.1545,58.4265 38.9895,63.1725 38.9895,63.1725 L40.587,62.2725 L40.623,56.4105 C40.623,56.4105 40.7445,54.069 38.3775,53.376 Z" id="Shape" fill="#CDDCEA" fill-rule="nonzero"></path>
                        <polygon id="Shape" fill="#78A6CA" fill-rule="nonzero" opacity="0.4" points="71.6025 115.3365 88.1445 113.3415 88.869 113.2545 89.604 114.4785 71.1135 116.439"></polygon>
                        <polygon id="Shape" fill="#78A6CA" fill-rule="nonzero" opacity="0.4" points="105.3045 126.33 121.8465 124.335 122.571 124.248 123.3045 125.472 104.8155 127.431"></polygon>
                        <polygon id="Shape" fill="#78A6CA" fill-rule="nonzero" opacity="0.4" points="136.6245 108.4785 153.1665 106.485 153.891 106.398 154.626 107.622 136.1355 109.581"></polygon>
                        <ellipse id="Oval" fill="#78A6CA" fill-rule="nonzero" opacity="0.4" cx="87.624" cy="80.9685" rx="5.3265" ry="1.347"></ellipse>
                        <path d="M90.9135,59.646 C88.2015,60.498 86.9445,57.7305 87.5565,56.5755 C88.1445,55.464 89.484,54.9255 88.6365,53.2425 C86.787,49.557 90.6825,49.767 89.8365,48.4515 C88.6785,46.6515 85.143,48.9885 85.737,46.0515 C86.052,44.493 88.0185,42.8145 87.618,41.6745 C86.6355,38.8785 84.2445,38.85 83.0565,39.081 C81.147,39.453 77.4855,40.581 80.61,46.8105 L80.634,46.854 C80.664,46.914 80.6985,46.977 80.73,47.0385 C81.1275,47.82 82.23,50.346 79.275,49.377 C77.1285,48.672 77.139,51.042 78.249,51.777 C79.359,52.512 81.216,51.555 81.339,55.686 C81.339,55.686 81.324,56.8575 80.0055,56.673 C78.687,56.4885 78.7455,59.238 79.8555,59.7315 C80.9655,60.225 81.966,60.1815 81.1335,61.0095 C79.5225,62.5215 77.4345,64.9095 79.662,66.6525 C82.4985,68.8725 81.942,67.7625 83.4525,70.1025 C84.963,72.4425 85.59,73.266 87.5625,69.567 C89.535,65.868 90.9585,66.606 92.562,64.14 C94.1655,61.674 93.5175,58.8285 90.9135,59.646 Z" id="Shape" fill="#B7CEE1" fill-rule="nonzero"></path>
                        <path d="M81.771,74.4645 L82.05,80.4075 C82.0715165,80.8814538 82.3426866,81.3084754 82.7625,81.5295 C84.5551188,82.4958642 86.7265398,82.435293 88.4625,81.3705 C88.8008783,81.1712977 89.0158291,80.8147388 89.034,80.4225 L89.3175,74.5005 L81.771,74.4645 Z" id="Shape" fill="#FFFFFF" fill-rule="nonzero"></path>
                        <ellipse id="Oval" fill="#85AECF" fill-rule="nonzero" cx="85.542" cy="74.5005" rx="3.7725" ry="1.353"></ellipse>
                        <path d="M85.152,67.755 L85.0995,66.246" id="Shape" fill="#FFFFFF" fill-rule="nonzero"></path>
                        <path d="M85.2,50.484 L84.8595,74.1735 C84.8594568,74.2949559 84.9085111,74.411272 84.9955159,74.496017 C85.0825207,74.580762 85.2000872,74.6267388 85.3215,74.6235 C85.5612001,74.6115002 85.7493002,74.4135001 85.749,74.1735 L85.599,62.9235 L85.5705,50.595 L85.2,50.484 Z" id="Shape" fill="#FFFFFF" fill-rule="nonzero"></path>
                        <polyline id="Shape" fill="#FFFFFF" fill-rule="nonzero" points="88.3425 61.443 88.377 61.6155 85.464 63.384 85.4985 62.8995"></polyline>
                        <polyline id="Shape" fill="#FFFFFF" fill-rule="nonzero" points="82.7205 55.2 82.689 55.374 85.308 57.1425 85.2765 56.6565"></polyline>
                        <path d="M122.151,41.4345 L119.0325,40.2105 L119.0325,43.254 C119.0325,43.254 119.0715,44.043 117.4695,44.2965 L120.366,45.3 C121.716,45.168 122.1195,43.5915 122.154,43.2525 L122.151,41.4345 Z" id="Shape" fill="#FFFFFF" fill-rule="nonzero" opacity="0.8"></path>
                        <path d="M125.64,48.966 L122.5215,47.742 L122.5215,50.7855 C122.5215,50.7855 122.5605,51.5745 120.9585,51.828 L123.8565,52.836 C125.2065,52.704 125.61,51.1275 125.6445,50.7885 L125.64,48.966 Z" id="Shape" fill="#FFFFFF" fill-rule="nonzero" opacity="0.8"></path>
                        <path d="M132.0705,46.761 L128.952,45.537 L128.952,48.5805 C128.952,48.5805 128.991,49.3695 127.389,49.623 L130.287,50.631 C131.637,50.499 132.0405,48.9225 132.075,48.5835 L132.0705,46.761 Z" id="Shape" fill="#FFFFFF" fill-rule="nonzero" opacity="0.8"></path>
                        <path d="M144.0105,45.4755 L140.892,44.25 L140.892,47.295 C140.892,47.295 140.931,48.084 139.329,48.3375 L142.2255,49.35 C143.5755,49.218 143.979,47.6415 144.0135,47.3025 L144.0105,45.4755 Z" id="Shape" fill="#FFFFFF" fill-rule="nonzero" opacity="0.8"></path>
                        <path d="M148.1505,56.16 L145.032,54.936 L145.032,57.9795 C145.032,57.9795 145.071,58.7685 143.469,59.022 L146.367,60.03 C147.717,59.898 148.1205,58.3215 148.155,57.9825 L148.1505,56.16 Z" id="Shape" fill="#FFFFFF" fill-rule="nonzero" opacity="0.8"></path>
                        <path d="M137.313,61.671 L134.1945,60.45 L134.1945,63.4935 C134.1945,63.4935 134.2335,64.2825 132.6315,64.536 L135.5295,65.544 C136.8795,65.412 137.283,63.8355 137.3175,63.4965 L137.313,61.671 Z" id="Shape" fill="#FFFFFF" fill-rule="nonzero" opacity="0.8"></path>
                        <path d="M112.8,47.2695 L109.686,46.05 L109.686,49.0935 C109.686,49.0935 109.725,49.8825 108.123,50.136 L111.021,51.144 C112.371,51.012 112.7745,49.4355 112.809,49.0965 L112.8,47.2695 Z" id="Shape" fill="#FFFFFF" fill-rule="nonzero" opacity="0.8"></path>
                        <path d="M114.762,59.271 L111.645,58.05 L111.645,61.0935 C111.645,61.0935 111.684,61.8825 110.082,62.136 L112.98,63.144 C114.33,63.012 114.7335,61.4355 114.768,61.0965 L114.762,59.271 Z" id="Shape" fill="#FFFFFF" fill-rule="nonzero" opacity="0.8"></path>
                        <path d="M147.1935,35.679 L144.075,34.455 L144.075,37.5 C144.075,37.5 144.114,38.289 142.512,38.5425 L145.41,39.5505 C146.76,39.4185 147.1635,37.842 147.198,37.503 L147.1935,35.679 Z" id="Shape" fill="#FFFFFF" fill-rule="nonzero" opacity="0.8"></path>
                        <path d="M140.4975,51.8745 L137.379,50.6505 L137.379,53.7 C137.379,53.7 137.418,54.489 135.816,54.7425 L138.714,55.7505 C140.064,55.6185 140.4675,54.042 140.502,53.703 L140.4975,51.8745 Z" id="Shape" fill="#FFFFFF" fill-rule="nonzero" opacity="0.8"></path>
                        <rect id="Rectangle-path" fill="#CDDCEA" fill-rule="nonzero" transform="translate(111.162657, 47.514133) rotate(-69.890000) translate(-111.162657, -47.514133) " x="111.040407" y="46.2968828" width="1" height="2.4345"></rect>
                        <rect id="Rectangle-path" fill="#CDDCEA" fill-rule="nonzero" transform="translate(111.092739, 48.096015) rotate(-70.100000) translate(-111.092739, -48.096015) " x="110.970489" y="46.9567653" width="1" height="2.2785"></rect>
                        <rect id="Rectangle-path" fill="#CDDCEA" fill-rule="nonzero" transform="translate(110.733653, 48.533848) rotate(-70.020000) translate(-110.733653, -48.533848) " x="110.611403" y="47.6975979" width="1" height="1.6725"></rect>
                        <rect id="Rectangle-path" fill="#CDDCEA" fill-rule="nonzero" transform="translate(124.072157, 48.932510) rotate(-69.890000) translate(-124.072157, -48.932510) " x="123.949907" y="47.7152596" width="1" height="2.4345"></rect>
                        <rect id="Rectangle-path" fill="#CDDCEA" fill-rule="nonzero" transform="translate(124.011358, 49.483051) rotate(-69.890000) translate(-124.011358, -49.483051) " x="123.889108" y="48.2658008" width="1" height="2.4345"></rect>
                        <rect id="Rectangle-path" fill="#CDDCEA" fill-rule="nonzero" transform="translate(135.714959, 61.871567) rotate(-69.890000) translate(-135.714959, -61.871567) " x="135.592709" y="60.6543171" width="1" height="2.4345"></rect>
                        <rect id="Rectangle-path" fill="#CDDCEA" fill-rule="nonzero" transform="translate(135.684913, 62.513989) rotate(-69.890000) translate(-135.684913, -62.513989) " x="135.562663" y="61.2967387" width="1" height="2.4345"></rect>
                        <rect id="Rectangle-path" fill="#CDDCEA" fill-rule="nonzero" transform="translate(142.451938, 45.544907) rotate(-69.890000) translate(-142.451938, -45.544907) " x="142.329688" y="44.3276575" width="1" height="2.4345"></rect>
                        <rect id="Rectangle-path" fill="#CDDCEA" fill-rule="nonzero" transform="translate(142.420483, 46.186813) rotate(-69.890000) translate(-142.420483, -46.186813) " x="142.298233" y="44.9695632" width="1" height="2.4345"></rect>
                        <path d="M124.386,101.649 C124.386,101.649 126.1275,103.926 125.136,113.7105 C125.136,113.7105 126.4395,117.4755 125.4915,120.7125 L124.014,120.909 L121.8105,107.8125 C121.8105,107.8125 121.143,111.294 121.1055,112.227 C121.011,114.627 120.981,118.0665 120.18,119.4555 L118.38,119.1075 C118.38,119.1075 117.987,112.7745 118.338,109.8075 C118.6095,107.5065 118.107,103.2075 118.8,102.486 C119.493,101.7645 124.386,101.649 124.386,101.649 Z" id="Shape" fill="#2771B0" fill-rule="nonzero"></path>
                        <path d="M124.4775,101.85 C124.4775,101.85 126.4275,103.95 125.1825,113.7 C125.1825,113.7 126.462,117.687 125.427,120.9 L124.0545,120.918 L121.65,107.865 C121.65,107.865 123.621,107.064 124.365,105.567 C124.8,104.691 124.4775,101.85 124.4775,101.85 Z" id="Shape" fill="#226393" fill-rule="nonzero"></path>
                        <path d="M111.432,92.46 C111.432,92.46 110.139,91.6395 109.767,91.269 C109.581,91.0845 109.6695,90.792 109.749,90.5505 C109.8285,90.309 110.472,89.667 110.5185,89.9355 C110.58946,90.3498914 110.842013,90.710838 111.207,90.9195 C111.207,90.9195 111.357,89.898 111.615,90.7335 C111.804,91.365 111.9675,91.8495 111.9675,91.8495 C111.9675,91.8495 111.9345,92.7705 111.432,92.46 Z" id="Shape" fill="#FFFFFF" fill-rule="nonzero"></path>
                        <path d="M124.296,96.2505 C124.503,95.8635 124.7235,94.644 124.461,94.0095 C124.011,92.9325 122.661,92.1375 120.327,91.581 L119.427,91.368 C119.298,91.683 119.619,92.163 120.2025,92.6685 C119.802,93.045 119.2905,93.444 118.8315,93.558 L118.7115,93.588 C118.445347,93.6706898 118.174328,93.7368164 117.9,93.786 C115.719,94.0935 115.0035,93.7485 111.87,91.0965 L110.6535,92.478 C113.562,94.9395 114.198,95.478 116.313,95.8905 C116.523,95.931 116.904,95.853 117.003,95.8575 C117.375909,95.8797851 117.681138,96.1624041 117.732,96.5325 C117.764563,96.675298 117.745984,96.8249951 117.6795,96.9555 C116.841,99.039 118.1295,99.246 118.1295,99.246 C119.073,100.0965 119.016,102.264 118.788,102.486 C121.374,103.0275 124.7175,102.051 124.377,101.649 C124.1385,101.3565 124.23,98.034 124.296,96.2505 Z M120.9765,93.8055 L120.9765,93.8145 L120.9765,93.8055 Z" id="Shape" fill="#2C4356" fill-rule="nonzero"></path>
                        <path d="M121.4925,91.7445 C121.219423,91.7710116 120.943923,91.7568575 120.675,91.7025 C119.974601,91.5695822 119.356698,91.1614862 118.959498,90.5694915 C118.562297,89.9774969 118.418943,89.2510008 118.5615,88.5525 C118.789322,87.5060794 119.61253,86.6922795 120.6615,86.4765 C121.6255,86.2075 122.4975,86.2005 123.2775,86.4555 C124.5,86.85 125.178,88.542 125.25,88.8795 C125.367,89.424 124.734,90.219 124.635,90.612 C124.536,91.005 124.485,91.512 123.5205,92.139 C122.8815,92.554 122.443,92.6575 122.205,92.4495 L121.4925,91.7445 Z" id="Shape" fill="#1A5784"></path>
                        <path d="M119.3775,88.2735 C119.442275,88.5399508 119.564075,88.7891807 119.7345,89.004 C119.868,89.154 120.705,89.532 121.3125,89.8335 C121.266,90.2835 121.194,90.711 121.194,90.711 C121.365,90.861 121.4625,90.9225 121.536,90.8115 L121.7775,90.033 L121.9365,90.0645 L122.2365,90.0765 C122.697,90.1695 122.7825,90.51 122.7015,90.8925 C122.6205,91.275 122.4015,91.4385 122.1795,91.4025 L121.5,92.673 C121.209,93.152 120.7025,93.287 119.9805,93.078 C118.8975,92.7645 118.683,92.028 118.68,91.566 C118.679,91.256 118.9115,90.1585 119.3775,88.2735 Z" id="Shape" fill="#FFFFFF"></path>
                        <path d="M123.3,92.2755 C123.3,92.2755 122.127,92.823 121.8975,93.7275 C121.8975,93.7275 120.744,92.2395 122.1735,91.4055" id="Shape" fill="#1A5784" fill-rule="nonzero"></path>
                        <path d="M119.634,88.2 C119.634,88.2 119.589,90.123 120.4125,90.714 C121.0605,91.1775 121.7925,90.7395 121.7925,90.7395 C122.0685,90.303 122.004,89.256 122.004,89.256" id="Shape" fill="#1A5784" fill-rule="nonzero"></path>
                        <path d="M122.466,122.301 C122.466,122.301 124.1805,122.082 124.026,120.9795 C123.828,119.577 123.543,119.388 123.498,118.7745 L125.9325,118.6845 C125.9325,118.6845 125.577,122.274 125.43,122.7045 L124.98,122.745 L124.9695,122.6115 C124.957642,122.522743 124.87879,122.458522 124.78947,122.464874 C124.70015,122.471225 124.631179,122.545958 124.632,122.6355 L124.6425,122.775 C123.6945,122.8605 122.2125,122.9865 122.1975,122.94 C122.1825,122.8935 121.809,122.274 122.466,122.301 Z" id="Shape" fill="#172B4D" fill-rule="nonzero"></path>
                        <path d="M116.6865,122.4 C116.6865,122.4 118.461,122.3865 118.5855,121.233 C118.7355,119.8275 118.182,119.1555 118.215,118.515 L120.615,118.5345 C120.615,118.5345 120.129,122.772 119.9085,123.198 L119.4585,123.186 L119.472,123.1125 C119.486401,123.02181 119.424661,122.936582 119.334,122.922 C119.242612,122.906531 119.155745,122.967337 119.139,123.0585 L119.118,123.177 C118.068,123.144 116.331,123.084 116.3205,123.027 C116.31,122.97 115.965,122.283 116.6865,122.4 Z" id="Shape" fill="#172B4D" fill-rule="nonzero"></path>
                        <path d="M95.3625,108.63 C95.3625,108.63 97.104,110.907 96.1125,120.6915 C96.1125,120.6915 97.416,124.4565 96.468,127.6935 L94.9905,127.89 L92.7885,114.795 C92.7885,114.795 92.121,118.2765 92.0835,119.2095 C91.989,121.6095 92.0295,125.07 91.227,126.459 L89.727,126.009 C89.727,126.009 88.9605,119.7555 89.31,116.7885 C89.5815,114.4875 89.079,110.1885 89.772,109.467 C90.465,108.7455 95.3625,108.63 95.3625,108.63 Z" id="Shape" fill="#2771B0" fill-rule="nonzero"></path>
                        <path d="M95.454,108.8325 C95.454,108.8325 97.404,110.9325 96.159,120.6825 C96.159,120.6825 97.4385,124.6695 96.4035,127.8825 L95.031,127.9005 L92.6205,114.8505 C92.6205,114.8505 94.5915,114.0495 95.3355,112.5525 C95.7705,111.6705 95.454,108.8325 95.454,108.8325 Z" id="Shape" fill="#226393" fill-rule="nonzero"></path>
                        <path d="M92.025,111.498 C92.025,111.498 92.0385,113.0295 91.9305,113.5425 C91.8765,113.799 91.5825,113.8845 91.3305,113.9475 C91.0785,114.0105 90.195,113.82 90.396,113.6355 C90.7046941,113.350324 90.8697494,112.942087 90.846,112.5225 C90.846,112.5225 89.904,112.9455 90.468,112.281 C90.8955,111.7785 91.218,111.381 91.218,111.381 C91.218,111.381 92.013,110.9085 92.025,111.498 Z" id="Shape" fill="#FFFFFF" fill-rule="nonzero"></path>
                        <path d="M90.327,101.559 C90.012,102.126 88.827,103.509 88.827,103.509 C87.477,105.009 89.265,105.7755 89.265,105.7755 C90.2085,106.626 90.0015,109.2435 89.7735,109.4655 C92.3595,110.007 95.703,109.0305 95.3625,108.6285 C95.115,108.336 95.2125,105.0135 95.2725,103.2285 C95.4795,102.8415 95.7,101.622 95.4375,100.9875 C94.9875,99.9105 93.6375,99.1155 91.3035,98.559 L90.4035,98.346 C90.267,98.679 90.6315,99.1965 91.278,99.732 C91.1685,99.882 91.053,100.0545 90.9405,100.2225 C90.945,100.2255 90.5055,101.238 90.327,101.559 Z M91.95,100.785 L91.95,100.794 L91.95,100.785 Z" id="Shape" fill="#2C4356" fill-rule="nonzero"></path>
                        <path d="M92.4675,98.7255 C92.1944226,98.7520116 91.9189227,98.7378575 91.65,98.6835 C90.9496011,98.5505822 90.3316978,98.1424862 89.9344975,97.5504915 C89.5372973,96.9584969 89.3939434,96.2320008 89.5365,95.5335 C89.764322,94.4870794 90.58753,93.6732795 91.6365,93.4575 C92.6005,93.1885 93.4725,93.1815 94.2525,93.4365 C95.4735,93.8355 96.1545,95.523 96.2265,95.8605 C96.3435,96.405 95.7105,97.2 95.6115,97.593 C95.5125,97.986 95.4615,98.493 94.497,99.12 C93.858,99.535 93.4195,99.6385 93.1815,99.4305 L92.4675,98.7255 Z" id="Shape" fill="#1A5784"></path>
                        <path d="M90.354,95.25 C90.4187751,95.5164508 90.5405754,95.7656807 90.711,95.9805 C90.8445,96.1305 91.6815,96.5085 92.289,96.81 C92.2425,97.26 92.1705,97.6875 92.1705,97.6875 C92.3415,97.8375 92.439,97.899 92.5125,97.788 L92.754,97.0095 L92.913,97.041 L93.213,97.053 C93.6735,97.146 93.759,97.4865 93.678,97.869 C93.597,98.2515 93.378,98.415 93.156,98.379 L92.484,99.648 C92.193,100.127 91.6865,100.262 90.9645,100.053 C89.8815,99.7395 89.667,99.003 89.664,98.541 C89.658,98.235 89.888,97.138 90.354,95.25 Z" id="Shape" fill="#FFFFFF"></path>
                        <path d="M94.275,99.255 C94.275,99.255 93.102,99.8025 92.8725,100.707 C92.8725,100.707 91.719,99.219 93.1485,98.385" id="Shape" fill="#1A5784" fill-rule="nonzero"></path>
                        <path d="M90.6105,95.1795 C90.6105,95.1795 90.5655,97.1025 91.389,97.6935 C92.037,98.157 92.769,97.719 92.769,97.719 C93.045,97.2825 92.9805,96.2355 92.9805,96.2355" id="Shape" fill="#1A5784" fill-rule="nonzero"></path>
                        <path d="M93.4425,129.282 C93.4425,129.282 95.157,129.063 95.0025,127.9605 C94.8045,126.558 94.5195,126.369 94.4745,125.7555 L96.909,125.6655 C96.909,125.6655 96.5535,129.255 96.4065,129.6855 L95.9565,129.726 L95.946,129.5925 C95.9341416,129.503743 95.8552897,129.439522 95.7659699,129.445874 C95.6766501,129.452225 95.6076795,129.526958 95.6085,129.6165 L95.619,129.756 C94.671,129.8415 93.189,129.9675 93.174,129.921 C93.159,129.8745 92.784,129.255 93.4425,129.282 Z" id="Shape" fill="#172B4D" fill-rule="nonzero"></path>
                        <path d="M87.813,129.3375 C87.813,129.3375 89.5875,129.324 89.712,128.1705 C89.862,126.765 89.3085,126.093 89.3415,125.4525 L91.7415,125.472 C91.7415,125.472 91.2555,129.7095 91.035,130.1355 L90.585,130.1235 L90.5985,130.05 C90.6129013,129.95931 90.551161,129.874082 90.4605,129.8595 C90.3691118,129.844031 90.2822455,129.904837 90.2655,129.996 L90.2445,130.1145 C89.1945,130.0815 87.4575,130.0215 87.447,129.9645 C87.4365,129.9075 87.0915,129.2265 87.813,129.3375 Z" id="Shape" fill="#172B4D" fill-rule="nonzero"></path>
                        <path d="M38.769,78.549 C38.769,78.549 37.1775,78.426 37.545,81.849 C37.9125,85.272 38.7,86.4675 38.7,89.4 C38.7,92.3325 56.2725,74.7465 56.2725,74.7465 L55.17,70.8285 L38.769,78.549 Z" id="Shape" fill="#D8E4EE" fill-rule="nonzero"></path>
                        <polyline id="Shape" fill="#78A6CA" fill-rule="nonzero" opacity="0.4" points="39.0135 109.815 44.442 112.3455 48.528 119.4075 50.733 118.2135 46.299 112.161 46.299 112.161 61.0185 114.1725 62.8545 113.0715 47.463 110.958 40.6875 108.9975 40.6875 108.9975"></polyline>
                        <path d="M37.4055,80.6385 C37.6425,80.9265 38.8905,79.5285 39.267,80.0385 L55.983,72.1395 C55.983,72.1395 55.2975,69.9825 53.4615,70.7175 C51.7125,71.418 37.323,76.818 37.344,79.152 C37.35,79.827 37.3245,80.5395 37.4055,80.6385 Z" id="Shape" fill="#F9FBFC" fill-rule="nonzero"></path>
                        <path d="M37.7895,83.487 C37.7895,83.487 36.666,78.1335 38.2395,78.7245 C39.2805,79.1145 39.3795,80.7525 39.3795,80.7525 L37.7895,83.487 Z" id="Shape" fill="#D8E4EE" fill-rule="nonzero"></path>
                        <path d="M40.8495,79.4055 C40.8495,79.4055 39.2385,79.8735 39.2145,80.496 C39.0765,84.2625 38.4645,97.635 36.675,99.105 C34.593,100.8195 46.593,95.676 46.593,95.676 L55.1745,73.0365 L40.8495,79.4055 Z" id="Shape" fill="#D8E4EE" fill-rule="nonzero"></path>
                        <polygon id="Shape" fill="#95B8D5" fill-rule="nonzero" points="47.1675 103.362 48.528 119.4075 50.733 118.2135 49.5555 107.0355 57.087 103.362 61.0185 114.1725 62.8545 113.0715 57.6375 98.769"></polygon>
                        <polygon id="Shape" fill="#95B8D5" fill-rule="nonzero" points="42.753 88.1895 39.0135 109.815 40.6875 108.9975 46.182 86.2305"></polygon>
                        <polygon id="Shape" fill="#F9FBFC" fill-rule="nonzero" points="60.687 98.1405 43.7895 106.9575 39.2685 80.0325 55.9845 72.1335"></polygon>
                        <polygon id="Shape" fill="#D8E4EE" fill-rule="nonzero" points="44.5755 104.526 44.556 104.4 40.7595 80.889 40.941 80.8605 44.7165 104.2455 58.8075 96.8355 58.893 96.9975"></polygon>
                        <path d="M36.165,120.267 L34.272,120.417 C34.1875094,120.578733 34.1182122,120.747959 34.065,120.9225 C34.0305,121.488 33.9315,121.494 34.887,121.539 C34.8585,121.4175 34.8375,121.2735 34.8975,121.239 C34.9575,121.2045 35.022,121.389 35.0565,121.548 L35.421,121.566 C36.102,121.6035 37.9395,121.7535 38.4645,121.587 C38.7975,121.485 36.4005,120.528 36.165,120.267 Z" id="Shape" fill="#172B4D" fill-rule="nonzero"></path>
                        <path d="M33.063,120.6345 L31.1655,120.7065 C31.0737837,120.864533 30.9969533,121.030748 30.936,121.203 C30.876,121.767 30.7785,121.7685 31.731,121.8555 C31.707,121.734 31.6935,121.5885 31.755,121.5555 C31.8165,121.5225 31.872,121.716 31.905,121.8705 L32.268,121.905 C32.9475,121.9725 34.776,122.205 35.307,122.055 C35.64,121.968 33.288,120.9 33.063,120.6345 Z" id="Shape" fill="#172B4D" fill-rule="nonzero"></path>
                        <path d="M33.8535,90.12 C33.315,90.1575 32.139,89.9565 31.959,88.188 C31.779,86.4195 33.8115,86.484 35.199,85.686 C36.5865,84.888 35.214,84.7035 35.5215,85.245 C35.829,85.7865 36.468,84.6345 36.351,85.593 C36.258,86.343 36.951,86.811 36.432,87.072 C36.1995,87.1875 36.282,87.1755 36.0705,87.4665 C35.634,88.089 36.06,88.833 36.06,88.833 C36.138,89.2665 35.112,89.6955 34.9215,89.412 C34.6215,88.962 34.722,88.4235 34.3785,88.4835 C34.0905,88.5345 33.5925,89.136 34.0785,89.4315 C35.148,90.0855 33.8535,90.12 33.8535,90.12 Z" id="Shape" fill="#172B4D" fill-rule="nonzero"></path>
                        <path d="M35.7,85.821 C35.6756156,86.0823784 35.5919995,86.3347655 35.4555,86.559 C35.343,86.709 34.5555,87.21 33.9975,87.5925 C34.068878,87.8386184 34.2125975,88.0575946 34.41,88.221 C34.44,88.3815 34.0365,88.3905 33.945,88.299 C33.8540009,88.1674227 33.7460733,88.0483998 33.624,87.945 C33.5536902,87.9248873 33.4811079,87.9137984 33.408,87.912 L33.108,87.972 C32.658,88.1355 32.6265,88.4655 32.7675,88.806 C32.9085,89.1465 33.3915,89.337 33.825,89.202 L33.903,89.424 L34.248,90.255 C34.616,90.655 35.147,90.6955 35.841,90.3765 C36.882,89.904 36.9825,89.19 36.912,88.758 C36.874,88.47 36.47,87.491 35.7,85.821 Z" id="Shape" fill="#FFFFFF"></path>
                        <path d="M34.155,101.313 C34.155,101.313 34.6215,119.0205 34.836,120.0105 L36.7455,119.9265 C36.9165,119.3775 37.2075,108.837 37.308,106.6695 C37.449,103.611 37.6425,102.1125 37.4235,101.3145 L34.155,101.313 Z" id="Shape" fill="#226393" fill-rule="nonzero"></path>
                        <path d="M31.5255,101.2365 C31.5255,101.2365 31.7925,119.694 31.8255,120.555 C31.842,120.915 34.2255,120.6045 34.1505,120.246 C34.0425,119.6835 34.938,103.779 35.169,103.3575 C35.4,102.936 37.3515,102.483 37.29,101.2395 L31.5255,101.2365 Z" id="Shape" fill="#2771B0" fill-rule="nonzero"></path>
                        <path d="M36.0855,92.9295 C36.0855,92.9295 36.5355,95.8395 36.864,95.5065 C37.431,94.9395 39.999,95.0985 40.464,94.9245 C40.929,94.7505 40.914,92.9055 40.0725,92.6955 C38.1255,92.211 36.0855,92.9295 36.0855,92.9295 Z" id="Shape" fill="#D5DDE8" fill-rule="nonzero"></path>
                        <path d="M36.0855,92.9295 C36.0855,92.9295 38.4585,93.186 39.45,95.109 L37.8,95.193" id="Shape" fill="#000000" fill-rule="nonzero" opacity="0.05"></path>
                        <path d="M31.86,92.3265 C31.86,92.3265 32.6575,94.5075 31,96 C30.4,96.537 31.71,101.2155 31.731,101.5275 C31.752,101.8395 37.044,101.6775 37.4805,101.643 C37.917,101.6085 37.764,93.2115 37.569,92.8395 C37.374,92.4675 36.3,91.7895 36.3,91.7895 L34.932,92.7 L32.7,91.2195 L31.86,92.3265 Z" id="Shape" fill="#2C4356" fill-rule="nonzero"></path>
                        <path d="M33.4335,91.458 C33.7245,91.7145 34.0875,92.1915 34.692,92.394 C35.2965,92.5965 36.003,91.9335 36.1485,91.6095 C36.2205,91.4505 36.564,91.8375 36.543,92.01 C36.477,92.547 35.229,93.381 34.6365,93.306 C33.8745,93.21 32.283,91.506 32.283,91.506 C32.2404386,91.4753024 32.2131035,91.4278105 32.2079387,91.3755885 C32.2027739,91.3233665 32.2202764,91.27144 32.256,91.233 L32.4555,91.128 C32.6150906,91.0376129 32.8104094,91.0376129 32.97,91.128 C32.97,91.128 33.3285,91.3665 33.4335,91.458 Z" id="Shape" fill="#CDDCEA" fill-rule="nonzero"></path>
                        <path d="M39.6615,94.5675 C39.6615,94.5675 39.78,94.9215 40.941,94.6365" id="Shape" fill="#FFFFFF" fill-rule="nonzero"></path>
                        <path d="M32.886,89.55 C32.3475,89.5875 32.007,89.229 31.827,87.4605 C31.647,85.692 32.844,85.9125 34.227,85.116 C35.61,84.3195 35.841,83.8935 36.147,84.435 C36.453,84.9765 36.459,85.485 36.2655,85.8645 C36.06,86.271 36.018,86.178 35.7555,86.5125 C35.5965,86.715 35.3055,86.6055 35.097,86.8965 C34.6605,87.519 35.0865,88.263 35.0865,88.263 C35.1645,88.6965 34.4865,89.022 34.3365,88.713 C34.1115,88.2435 33.774,87.843 33.3975,87.912 C33.1095,87.9645 32.6115,88.5645 33.0975,88.86 C33.2985,88.983 33.6645,89.019 33.7875,89.1465 C34.077,89.4315 32.886,89.55 32.886,89.55 Z" id="Shape" fill="#172B4D" fill-rule="nonzero"></path>
                        <path d="M90.9915,108.6 C90.9915,108.6 90.633,110.7555 90.477,111.33 C90.321,111.9045 92.6865,111.6825 92.6865,111.6825 L92.8935,108.711" id="Shape" fill="#2C4356" fill-rule="nonzero"></path>
                        <path d="M210.027,104.151 L209.976,34.785 L114.6,85.5765 L0.4065,50.838 L0,50.7135 L1.8375,119.0385 L1.8375,119.256 L115.1145,155.688 L115.5,155.8185 L115.695,155.712 L209.8215,104.31 L209.8005,104.2725 L209.862,104.2395 L210.027,104.151 Z M209.364,35.8035 L209.415,103.788 L115.7445,154.899 L114.936,86.0895 L209.364,35.8035 Z M2.445,118.8 L0.6345,51.5475 L114.2805,86.1225 L114.8805,136.752 L115.0815,155.031 L2.445,118.8 Z" id="Shape" fill="#FFFFFF" fill-rule="nonzero"></path>
                        <ellipse id="Oval" fill="#95B8D5" fill-rule="nonzero" cx="45.2985" cy="80.1105" rx="1" ry="1"></ellipse>
                        <path d="M47.079,81.414 C47.028122,81.2587343 46.9638816,81.1081708 46.887,80.964 C46.683,80.619 46.0605,80.652 45.2805,80.9205 C44.5005,81.189 44.0595,81.6945 44.106,82.0935 C44.1345,82.3365 44.196,82.6635 44.196,82.6635" id="Shape" fill="#95B8D5" fill-rule="nonzero"></path>
                        <ellipse id="Oval" fill="#95B8D5" fill-rule="nonzero" cx="46.767" cy="85.743" rx="1" ry="1"></ellipse>
                        <path d="M48.549,87.048 C48.498122,86.8927343 48.4338816,86.7421708 48.357,86.598 C48.153,86.253 47.5305,86.286 46.7505,86.5545 C45.9705,86.823 45.5295,87.3285 45.576,87.7275 C45.6045,87.9705 45.666,88.2975 45.666,88.2975" id="Shape" fill="#95B8D5" fill-rule="nonzero"></path>
                        <ellipse id="Oval" fill="#95B8D5" fill-rule="nonzero" cx="47.8845" cy="91.5825" rx="1" ry="1"></ellipse>
                        <path d="M49.665,92.8875 C49.614122,92.7322343 49.5498816,92.5816708 49.473,92.4375 C49.269,92.0925 48.6465,92.1255 47.8665,92.394 C47.0865,92.6625 46.6455,93.168 46.692,93.567 C46.7205,93.81 46.782,94.137 46.782,94.137" id="Shape" fill="#95B8D5" fill-rule="nonzero"></path>
                        <path d="M44.07,89.7915 C44.07,89.7915 45.1515,90.615 45.8205,89.9415 C46.407,89.355 46.4205,89.244 46.602,89.1495 C46.7835,89.055 47.0025,88.6305 46.752,88.6485 C46.5015,88.6665 46.248,88.881 46.302,88.761 C46.539,88.2435 47.535,87.39 47.517,86.802 C47.499,86.214 46.9365,87.216 46.659,87.2325 C45.768,87.2835 45.7005,87.2895 45.063,87.969 C44.4255,88.6485 44.274,89.2725 44.034,89.514" id="Shape" fill="#FFFFFF" fill-rule="nonzero"></path>
                        <path d="M40.764,94.6845 C39.8355,94.878 39.5175,94.62 39.564,94.4055 C39.6105,94.191 40.083,93.999 40.14,93.7725 C40.2255,93.432 40.4865,92.9775 40.4205,92.985 C40.6014584,92.9386916 40.7744016,92.8653677 40.9335,92.7675 C41.3175,92.5575 42.645,91.5015 43.1445,90.768 C44.0325,89.4645 44.328,89.223 44.652,88.617 L45.4605,89.841 C45.225,90 44.7525,91.077 44.313,91.641 C43.284,92.9685 42.558,93.867 41.8575,94.2495 C41.5163032,94.4473374 41.147859,94.5939065 40.764,94.6845 Z" id="Shape" fill="#FFFFFF" fill-rule="nonzero"></path>
                        <path d="M32.3355,103.4865 L30.45,103.14 C30.5655,102.6195 29.877,101.4285 29.325,100.4715 C29.04,99.978 28.746,99.468 28.4955,98.9625 C27.5805,97.1085 28.353,95.9625 28.9545,95.5755 L30.0705,96.993 C30.0884374,96.9837136 30.1050793,96.9721147 30.12,96.9585 C29.997,97.0695 29.8635,97.4835 30.249,98.2635 C30.474,98.7135 30.7545,99.2055 31.026,99.6765 C31.827,101.0595 32.583,102.366 32.3355,103.4865 Z" id="Shape" fill="#FFFFFF" fill-rule="nonzero"></path>
                        <path d="M30.513,93 C29.703,94.0305 27.6165,95.4765 27.7665,96.0225 C27.9165,96.5685 29.091,97.4745 29.6085,97.6815 C30.126,97.8885 32.1585,95.973 32.6205,95.253 C33.0825,94.533 32.931,93.168 31.86,92.3205 C31.467,92.016 30.75,92.7 30.513,93 Z" id="Shape" fill="#D5DDE8" fill-rule="nonzero"></path>
                        <path d="M30.2655,103.389 C30.2655,103.389 29.9145,104.196 29.76,104.328 C29.6055,104.46 29.169,103.9455 28.977,103.9875 C28.785,104.0295 28.791,104.004 28.9545,104.202 C29.118,104.4 29.2545,104.928 29.562,105.0915 C29.71232,105.079902 29.8618293,105.122467 29.9835,105.2115 C30.1335,105.3525 30.552,105.5115 30.72,105.444 C30.888,105.3765 31.47,104.9535 31.743,105.177 C32.016,105.4005 32.8395,103.077 32.1165,103.0335 C31.6191536,102.993812 31.1262574,102.910492 30.6435,102.7845 L30.2655,103.389 Z" id="Shape" fill="#FFFFFF" fill-rule="nonzero"></path>
                    </g>
                </g>
            </g>
        </g>
    </g>
</svg>